…
``` r
tidydf
```

    ## # A tibble: 180 x 68
    ## # Groups:   activity [6]
    ##    activity subject `Time_Body_Acce~ `Time_Body_Acce~ `Time_Body_Acce~
    ##    <chr>      <int>            <dbl>            <dbl>            <dbl>
    ##  1 LAYING         1            0.222          -0.0405           -0.113
    ##  2 LAYING         2            0.281          -0.0182           -0.107
    ##  3 LAYING         3            0.276          -0.0190           -0.101
    ##  4 LAYING         4            0.264          -0.0150           -0.111
    ##  5 LAYING         5            0.278          -0.0183           -0.108
    ##  6 LAYING         6            0.249          -0.0103           -0.133
    ##  7 LAYING         7            0.250          -0.0204           -0.101
    ##  8 LAYING         8            0.261          -0.0212           -0.102
    ##  9 LAYING         9            0.259          -0.0205           -0.108
    ## 10 LAYING        10            0.280          -0.0243           -0.117
    ## # ... with 170 more rows, and 63 more variables:
    ## #   `Time_Body_Acceleration_standard_deviation_x-axis` <dbl>,
    ## #   `Time_Body_Acceleration_standard_deviation_y-axis` <dbl>,
    ## #   `Time_Body_Acceleration_standard_deviation_z-axis` <dbl>,
    ## #   `Time_Gravity_Acceleration_mean x-axis` <dbl>,
    ## #   `Time_Gravity_Acceleration_mean y-axis` <dbl>,
    ## #   `Time_Gravity_Acceleration_mean z-axis` <dbl>,
    ## #   `Time_Gravity_Acceleration_standard_deviation_x-axis` <dbl>,
    ## #   `Time_Gravity_Acceleration_standard_deviation_y-axis` <dbl>,
…
